{
	"href": "https://api.spotify.com/v1/users/126173649/playlists?offset=5&limit=10",
	"items": [
		{
			"collaborative": false,
			"description": "",
			"external_urls": {
				"spotify": "https://open.spotify.com/playlist/3gOENoFmeBBAK9Wlhk6RfO"
			},
			"href": "https://api.spotify.com/v1/playlists/3gOENoFmeBBAK9Wlhk6RfO",
			"id": "3gOENoFmeBBAK9Wlhk6RfO",
			"images": [
				{
					"height": 640,
					"url": "https://mosaic.scdn.co/640/ab67616d0000b273164bacd72ed89a4aab6143b8ab67616d0000b2731794fce3f54c4ed38bb83499ab67616d0000b2738bbf4969da60102bfbf8b9fcab67616d0000b273a4bcfb19845eac1b6c650285",
					"width": 640
				},
				{
					"height": 300,
					"url": "https://mosaic.scdn.co/300/ab67616d0000b273164bacd72ed89a4aab6143b8ab67616d0000b2731794fce3f54c4ed38bb83499ab67616d0000b2738bbf4969da60102bfbf8b9fcab67616d0000b273a4bcfb19845eac1b6c650285",
					"width": 300
				},
				{
					"height": 60,
					"url": "https://mosaic.scdn.co/60/ab67616d0000b273164bacd72ed89a4aab6143b8ab67616d0000b2731794fce3f54c4ed38bb83499ab67616d0000b2738bbf4969da60102bfbf8b9fcab67616d0000b273a4bcfb19845eac1b6c650285",
					"width": 60
				}
			],
			"name": "July",
			"owner": {
				"display_name": "Nick Schmitt",
				"external_urls": {
					"spotify": "https://open.spotify.com/user/126173649"
				},
				"href": "https://api.spotify.com/v1/users/126173649",
				"id": "126173649",
				"type": "user",
				"uri": "spotify:user:126173649"
			},
			"primary_color": null,
			"public": true,
			"snapshot_id": "NDcsZTZjMTJmZTI3NjU4OGMzNDcxODMyY2E4Zjc0MjNjMWUyYzBkZDAzYw==",
			"tracks": {
				"href": "https://api.spotify.com/v1/playlists/3gOENoFmeBBAK9Wlhk6RfO/tracks",
				"total": 43
			},
			"type": "playlist",
			"uri": "spotify:playlist:3gOENoFmeBBAK9Wlhk6RfO"
		},
		{
			"collaborative": false,
			"description": "",
			"external_urls": {
				"spotify": "https://open.spotify.com/playlist/026MK6OM3UNVO1SgXOQNVU"
			},
			"href": "https://api.spotify.com/v1/playlists/026MK6OM3UNVO1SgXOQNVU",
			"id": "026MK6OM3UNVO1SgXOQNVU",
			"images": [
				{
					"height": 640,
					"url": "https://mosaic.scdn.co/640/ab67616d0000b2730085aa2d1a9beecec53c6d79ab67616d0000b2731eecb15ea79e0de4e636fdc9ab67616d0000b273a8d322de12fd1b2731f7b997ab67616d0000b273d1474ac08537f5d9655552f2",
					"width": 640
				},
				{
					"height": 300,
					"url": "https://mosaic.scdn.co/300/ab67616d0000b2730085aa2d1a9beecec53c6d79ab67616d0000b2731eecb15ea79e0de4e636fdc9ab67616d0000b273a8d322de12fd1b2731f7b997ab67616d0000b273d1474ac08537f5d9655552f2",
					"width": 300
				},
				{
					"height": 60,
					"url": "https://mosaic.scdn.co/60/ab67616d0000b2730085aa2d1a9beecec53c6d79ab67616d0000b2731eecb15ea79e0de4e636fdc9ab67616d0000b273a8d322de12fd1b2731f7b997ab67616d0000b273d1474ac08537f5d9655552f2",
					"width": 60
				}
			],
			"name": "June",
			"owner": {
				"display_name": "Nick Schmitt",
				"external_urls": {
					"spotify": "https://open.spotify.com/user/126173649"
				},
				"href": "https://api.spotify.com/v1/users/126173649",
				"id": "126173649",
				"type": "user",
				"uri": "spotify:user:126173649"
			},
			"primary_color": null,
			"public": true,
			"snapshot_id": "MjIsOGMzODM3OTQwODdjMTIzYWQzZDc5ZGUyYTQ5MjI3NzI3NThjNjZkYQ==",
			"tracks": {
				"href": "https://api.spotify.com/v1/playlists/026MK6OM3UNVO1SgXOQNVU/tracks",
				"total": 20
			},
			"type": "playlist",
			"uri": "spotify:playlist:026MK6OM3UNVO1SgXOQNVU"
		},
		{
			"collaborative": false,
			"description": "",
			"external_urls": {
				"spotify": "https://open.spotify.com/playlist/0MQRxkRsWsDNsntcwoABkc"
			},
			"href": "https://api.spotify.com/v1/playlists/0MQRxkRsWsDNsntcwoABkc",
			"id": "0MQRxkRsWsDNsntcwoABkc",
			"images": [
				{
					"height": 640,
					"url": "https://mosaic.scdn.co/640/ab67616d0000b2732044687678a5ee5a46576be8ab67616d0000b273a007c5cadd2d76cb8aa8bd9eab67616d0000b273bc3d570f45d30a9f156e2ddcab67616d0000b273c5f85929d644ade165b34063",
					"width": 640
				},
				{
					"height": 300,
					"url": "https://mosaic.scdn.co/300/ab67616d0000b2732044687678a5ee5a46576be8ab67616d0000b273a007c5cadd2d76cb8aa8bd9eab67616d0000b273bc3d570f45d30a9f156e2ddcab67616d0000b273c5f85929d644ade165b34063",
					"width": 300
				},
				{
					"height": 60,
					"url": "https://mosaic.scdn.co/60/ab67616d0000b2732044687678a5ee5a46576be8ab67616d0000b273a007c5cadd2d76cb8aa8bd9eab67616d0000b273bc3d570f45d30a9f156e2ddcab67616d0000b273c5f85929d644ade165b34063",
					"width": 60
				}
			],
			"name": "May",
			"owner": {
				"display_name": "Nick Schmitt",
				"external_urls": {
					"spotify": "https://open.spotify.com/user/126173649"
				},
				"href": "https://api.spotify.com/v1/users/126173649",
				"id": "126173649",
				"type": "user",
				"uri": "spotify:user:126173649"
			},
			"primary_color": null,
			"public": true,
			"snapshot_id": "NywyNTgxODBjMTdkMjc3NjVlNDdiODc3MTk3NTZlNDQ4YTg2ZjZkMDIy",
			"tracks": {
				"href": "https://api.spotify.com/v1/playlists/0MQRxkRsWsDNsntcwoABkc/tracks",
				"total": 5
			},
			"type": "playlist",
			"uri": "spotify:playlist:0MQRxkRsWsDNsntcwoABkc"
		},
		{
			"collaborative": false,
			"description": "",
			"external_urls": {
				"spotify": "https://open.spotify.com/playlist/0e9k2vCzv7HZLxD3MkaUHi"
			},
			"href": "https://api.spotify.com/v1/playlists/0e9k2vCzv7HZLxD3MkaUHi",
			"id": "0e9k2vCzv7HZLxD3MkaUHi",
			"images": [
				{
					"height": 640,
					"url": "https://mosaic.scdn.co/640/ab67616d0000b27310709dcfcfe64903cccdbeebab67616d0000b2732d976d04b6837b4416547bd8ab67616d0000b273d1ee695f17990d352b19fa91ab67616d0000b273edcf47b73864d841fa4edc56",
					"width": 640
				},
				{
					"height": 300,
					"url": "https://mosaic.scdn.co/300/ab67616d0000b27310709dcfcfe64903cccdbeebab67616d0000b2732d976d04b6837b4416547bd8ab67616d0000b273d1ee695f17990d352b19fa91ab67616d0000b273edcf47b73864d841fa4edc56",
					"width": 300
				},
				{
					"height": 60,
					"url": "https://mosaic.scdn.co/60/ab67616d0000b27310709dcfcfe64903cccdbeebab67616d0000b2732d976d04b6837b4416547bd8ab67616d0000b273d1ee695f17990d352b19fa91ab67616d0000b273edcf47b73864d841fa4edc56",
					"width": 60
				}
			],
			"name": "April",
			"owner": {
				"display_name": "Nick Schmitt",
				"external_urls": {
					"spotify": "https://open.spotify.com/user/126173649"
				},
				"href": "https://api.spotify.com/v1/users/126173649",
				"id": "126173649",
				"type": "user",
				"uri": "spotify:user:126173649"
			},
			"primary_color": null,
			"public": true,
			"snapshot_id": "MjYsMTFlZmQ1YjdmNjMzOWZmMjZhYTkzOTQ3YTM2NTI1ZTcwNDViODk0Yw==",
			"tracks": {
				"href": "https://api.spotify.com/v1/playlists/0e9k2vCzv7HZLxD3MkaUHi/tracks",
				"total": 24
			},
			"type": "playlist",
			"uri": "spotify:playlist:0e9k2vCzv7HZLxD3MkaUHi"
		},
		{
			"collaborative": false,
			"description": "",
			"external_urls": {
				"spotify": "https://open.spotify.com/playlist/7xIUvm4hLworBeg5Vpcj55"
			},
			"href": "https://api.spotify.com/v1/playlists/7xIUvm4hLworBeg5Vpcj55",
			"id": "7xIUvm4hLworBeg5Vpcj55",
			"images": [
				{
					"height": 640,
					"url": "https://mosaic.scdn.co/640/ab67616d0000b273304ae5169ad8e53e261b93f2ab67616d0000b2738f5636c9f7c8e432f81fe29aab67616d0000b273bfdfcd322c873b5bd5eddc65ab67616d0000b273cb5ec46d6f1d2cf8d36d3663",
					"width": 640
				},
				{
					"height": 300,
					"url": "https://mosaic.scdn.co/300/ab67616d0000b273304ae5169ad8e53e261b93f2ab67616d0000b2738f5636c9f7c8e432f81fe29aab67616d0000b273bfdfcd322c873b5bd5eddc65ab67616d0000b273cb5ec46d6f1d2cf8d36d3663",
					"width": 300
				},
				{
					"height": 60,
					"url": "https://mosaic.scdn.co/60/ab67616d0000b273304ae5169ad8e53e261b93f2ab67616d0000b2738f5636c9f7c8e432f81fe29aab67616d0000b273bfdfcd322c873b5bd5eddc65ab67616d0000b273cb5ec46d6f1d2cf8d36d3663",
					"width": 60
				}
			],
			"name": "Peloton Hype",
			"owner": {
				"display_name": "Nick Schmitt",
				"external_urls": {
					"spotify": "https://open.spotify.com/user/126173649"
				},
				"href": "https://api.spotify.com/v1/users/126173649",
				"id": "126173649",
				"type": "user",
				"uri": "spotify:user:126173649"
			},
			"primary_color": null,
			"public": true,
			"snapshot_id": "MTAsNDc0MzQwNDFhOTRhY2E0MGU4NTFkMmNiZGQ0OTQzMDU5MWY5MDlhNA==",
			"tracks": {
				"href": "https://api.spotify.com/v1/playlists/7xIUvm4hLworBeg5Vpcj55/tracks",
				"total": 9
			},
			"type": "playlist",
			"uri": "spotify:playlist:7xIUvm4hLworBeg5Vpcj55"
		},
		{
			"collaborative": false,
			"description": "Soothing relaxation, mellow mood, downtempo ambiance, soft lullabies, quiet piano, slow world, stress relief. #dreaming #bedtime #nap #baby",
			"external_urls": {
				"spotify": "https://open.spotify.com/playlist/1EwhnzfAoRx4pEJczNm7un"
			},
			"href": "https://api.spotify.com/v1/playlists/1EwhnzfAoRx4pEJczNm7un",
			"id": "1EwhnzfAoRx4pEJczNm7un",
			"images": [
				{
					"height": null,
					"url": "https://i.scdn.co/image/ab67706c0000bebb096c95bb14b12da43c54fee4",
					"width": null
				}
			],
			"name": "Ambient Sleep Music Playlist: Relaxing Songs for Deep Sleeping - Peaceful Sounds to Fall Asleep at Night - Calming White Noise Instrumentals",
			"owner": {
				"display_name": "shepardaudio",
				"external_urls": {
					"spotify": "https://open.spotify.com/user/shepardaudio"
				},
				"href": "https://api.spotify.com/v1/users/shepardaudio",
				"id": "shepardaudio",
				"type": "user",
				"uri": "spotify:user:shepardaudio"
			},
			"primary_color": null,
			"public": false,
			"snapshot_id": "NTUzLGU0YzA5MDhmZjM2OTYxYTU3NzI0YTViZjM0MjU4ZGJhMzlmODU4NzQ=",
			"tracks": {
				"href": "https://api.spotify.com/v1/playlists/1EwhnzfAoRx4pEJczNm7un/tracks",
				"total": 154
			},
			"type": "playlist",
			"uri": "spotify:playlist:1EwhnzfAoRx4pEJczNm7un"
		},
		{
			"collaborative": false,
			"description": "",
			"external_urls": {
				"spotify": "https://open.spotify.com/playlist/0KoE4Pu31GN4ZzSCWppprs"
			},
			"href": "https://api.spotify.com/v1/playlists/0KoE4Pu31GN4ZzSCWppprs",
			"id": "0KoE4Pu31GN4ZzSCWppprs",
			"images": [
				{
					"height": 640,
					"url": "https://mosaic.scdn.co/640/ab67616d0000b2730d1b375b60fc8c6474f39c0aab67616d0000b2730f69c77c14cec20451f34de5ab67616d0000b27317a9dff5f3483fa93d29d157ab67616d0000b273d1ee695f17990d352b19fa91",
					"width": 640
				},
				{
					"height": 300,
					"url": "https://mosaic.scdn.co/300/ab67616d0000b2730d1b375b60fc8c6474f39c0aab67616d0000b2730f69c77c14cec20451f34de5ab67616d0000b27317a9dff5f3483fa93d29d157ab67616d0000b273d1ee695f17990d352b19fa91",
					"width": 300
				},
				{
					"height": 60,
					"url": "https://mosaic.scdn.co/60/ab67616d0000b2730d1b375b60fc8c6474f39c0aab67616d0000b2730f69c77c14cec20451f34de5ab67616d0000b27317a9dff5f3483fa93d29d157ab67616d0000b273d1ee695f17990d352b19fa91",
					"width": 60
				}
			],
			"name": "0221",
			"owner": {
				"display_name": "Nick Schmitt",
				"external_urls": {
					"spotify": "https://open.spotify.com/user/126173649"
				},
				"href": "https://api.spotify.com/v1/users/126173649",
				"id": "126173649",
				"type": "user",
				"uri": "spotify:user:126173649"
			},
			"primary_color": null,
			"public": true,
			"snapshot_id": "MywzODYwMjEyNzk0ODJjZmMzMTdlYzMwNjNjZTUyZGU5MThkNzM0YjQ0",
			"tracks": {
				"href": "https://api.spotify.com/v1/playlists/0KoE4Pu31GN4ZzSCWppprs/tracks",
				"total": 73
			},
			"type": "playlist",
			"uri": "spotify:playlist:0KoE4Pu31GN4ZzSCWppprs"
		},
		{
			"collaborative": false,
			"description": "",
			"external_urls": {
				"spotify": "https://open.spotify.com/playlist/7G3NmrNJMU4KvwWB7mPaqW"
			},
			"href": "https://api.spotify.com/v1/playlists/7G3NmrNJMU4KvwWB7mPaqW",
			"id": "7G3NmrNJMU4KvwWB7mPaqW",
			"images": [
				{
					"height": 640,
					"url": "https://mosaic.scdn.co/640/ab67616d0000b27330b7d0fe4ea28d1d248fe58dab67616d0000b273a4e6a87247e19ccd299ad01cab67616d0000b273c5f85929d644ade165b34063ab67616d0000b273c6cdd2cd902f85dd656b42ca",
					"width": 640
				},
				{
					"height": 300,
					"url": "https://mosaic.scdn.co/300/ab67616d0000b27330b7d0fe4ea28d1d248fe58dab67616d0000b273a4e6a87247e19ccd299ad01cab67616d0000b273c5f85929d644ade165b34063ab67616d0000b273c6cdd2cd902f85dd656b42ca",
					"width": 300
				},
				{
					"height": 60,
					"url": "https://mosaic.scdn.co/60/ab67616d0000b27330b7d0fe4ea28d1d248fe58dab67616d0000b273a4e6a87247e19ccd299ad01cab67616d0000b273c5f85929d644ade165b34063ab67616d0000b273c6cdd2cd902f85dd656b42ca",
					"width": 60
				}
			],
			"name": "0121",
			"owner": {
				"display_name": "Nick Schmitt",
				"external_urls": {
					"spotify": "https://open.spotify.com/user/126173649"
				},
				"href": "https://api.spotify.com/v1/users/126173649",
				"id": "126173649",
				"type": "user",
				"uri": "spotify:user:126173649"
			},
			"primary_color": null,
			"public": true,
			"snapshot_id": "MixiYjNhZWYxYjA2MjUxOGM5YWUyYmY2ZDIyNjNkZmNiMzU5OThlMjVm",
			"tracks": {
				"href": "https://api.spotify.com/v1/playlists/7G3NmrNJMU4KvwWB7mPaqW/tracks",
				"total": 71
			},
			"type": "playlist",
			"uri": "spotify:playlist:7G3NmrNJMU4KvwWB7mPaqW"
		},
		{
			"collaborative": false,
			"description": "Attempt to recreate barry lyndon soundtrack in spotify <a href=\"https://www.discogs.com/Various-Barry-Lyndon-Music-From-The-Soundtrack/release/1955779\">https://www.discogs.com/Various-Barry-Lyndon-Music-From-The-Soundtrack/release/1955779</a>",
			"external_urls": {
				"spotify": "https://open.spotify.com/playlist/3OoxCu58T4BS2amAnfTnph"
			},
			"href": "https://api.spotify.com/v1/playlists/3OoxCu58T4BS2amAnfTnph",
			"id": "3OoxCu58T4BS2amAnfTnph",
			"images": [
				{
					"height": null,
					"url": "https://i.scdn.co/image/ab67706c0000bebb1e646c99bbfa73f2716cb7dd",
					"width": null
				}
			],
			"name": "Barry Lindon  - Soundtrack",
			"owner": {
				"display_name": "vinzenttt",
				"external_urls": {
					"spotify": "https://open.spotify.com/user/vinzenttt"
				},
				"href": "https://api.spotify.com/v1/users/vinzenttt",
				"id": "vinzenttt",
				"type": "user",
				"uri": "spotify:user:vinzenttt"
			},
			"primary_color": null,
			"public": false,
			"snapshot_id": "MjcsNmQ2MzdlMjkwNjg5N2RiODk3MmY5YTQ2MWM2ZTBkOGYyN2E3OWJjYg==",
			"tracks": {
				"href": "https://api.spotify.com/v1/playlists/3OoxCu58T4BS2amAnfTnph/tracks",
				"total": 12
			},
			"type": "playlist",
			"uri": "spotify:playlist:3OoxCu58T4BS2amAnfTnph"
		},
		{
			"collaborative": false,
			"description": "",
			"external_urls": {
				"spotify": "https://open.spotify.com/playlist/3PpA3KTcGcOX5UadtFqu0f"
			},
			"href": "https://api.spotify.com/v1/playlists/3PpA3KTcGcOX5UadtFqu0f",
			"id": "3PpA3KTcGcOX5UadtFqu0f",
			"images": [
				{
					"height": 640,
					"url": "https://mosaic.scdn.co/640/ab67616d0000b273a2ef30abcc11701922e2168cab67616d0000b273b210de00524077b644ad6dc0ab67616d0000b273cb5ec46d6f1d2cf8d36d3663ab67616d0000b273f8fa082806184fcb032d8e0a",
					"width": 640
				},
				{
					"height": 300,
					"url": "https://mosaic.scdn.co/300/ab67616d0000b273a2ef30abcc11701922e2168cab67616d0000b273b210de00524077b644ad6dc0ab67616d0000b273cb5ec46d6f1d2cf8d36d3663ab67616d0000b273f8fa082806184fcb032d8e0a",
					"width": 300
				},
				{
					"height": 60,
					"url": "https://mosaic.scdn.co/60/ab67616d0000b273a2ef30abcc11701922e2168cab67616d0000b273b210de00524077b644ad6dc0ab67616d0000b273cb5ec46d6f1d2cf8d36d3663ab67616d0000b273f8fa082806184fcb032d8e0a",
					"width": 60
				}
			],
			"name": "Liked Songs",
			"owner": {
				"display_name": "Nick Schmitt",
				"external_urls": {
					"spotify": "https://open.spotify.com/user/126173649"
				},
				"href": "https://api.spotify.com/v1/users/126173649",
				"id": "126173649",
				"type": "user",
				"uri": "spotify:user:126173649"
			},
			"primary_color": null,
			"public": true,
			"snapshot_id": "Niw1ZmE3M2UyY2MxMWZjYjYxNWFmOWRkMmRmZWY2MzNmNGViMjk1MTBh",
			"tracks": {
				"href": "https://api.spotify.com/v1/playlists/3PpA3KTcGcOX5UadtFqu0f/tracks",
				"total": 668
			},
			"type": "playlist",
			"uri": "spotify:playlist:3PpA3KTcGcOX5UadtFqu0f"
		}
	],
	"limit": 10,
	"next": "https://api.spotify.com/v1/users/126173649/playlists?offset=15&limit=10",
	"offset": 5,
	"previous": "https://api.spotify.com/v1/users/126173649/playlists?offset=0&limit=10",
	"total": 187
}